[gd_scene load_steps=4 format=3 uid="uid://it8dmfsguoi3"]

[ext_resource type="Theme" uid="uid://tjlb3us5j7bk" path="res://gui/gui_theme.tres" id="1_yw8w7"]
[ext_resource type="Script" path="res://StageUI.gd" id="2_horjp"]

[sub_resource type="StyleBoxFlat" id="StyleBoxFlat_xtcmc"]
bg_color = Color(0, 0, 0, 1)

[node name="StageUI" type="Control" node_paths=PackedStringArray("point_counter_label")]
layout_mode = 3
anchors_preset = 15
anchor_right = 1.0
anchor_bottom = 1.0
grow_horizontal = 2
grow_vertical = 2
mouse_filter = 2
theme = ExtResource("1_yw8w7")
script = ExtResource("2_horjp")
point_counter_label = NodePath("Background/Header/PointCounter")

[node name="Background" type="PanelContainer" parent="."]
layout_mode = 1
anchors_preset = 10
anchor_right = 1.0
offset_bottom = 20.0
grow_horizontal = 2
theme_override_styles/panel = SubResource("StyleBoxFlat_xtcmc")

[node name="Header" type="HBoxContainer" parent="Background"]
layout_mode = 2

[node name="Title" type="Label" parent="Background/Header"]
layout_mode = 2
size_flags_vertical = 1
theme_override_colors/font_color = Color(1, 1, 0, 1)
theme_override_font_sizes/font_size = 16
text = "P100    Infobahn"

[node name="PointCounter" type="Label" parent="Background/Header"]
layout_mode = 2
size_flags_horizontal = 3
size_flags_vertical = 1
theme_override_colors/font_color = Color(0, 1, 0, 1)
theme_override_font_sizes/font_size = 16
text = "Points - 0"
horizontal_alignment = 2
